…
5.  Write a chunk of code that calculates the mean temperature for the
    month of January for each station.

Hint: think about using the pipe, `filter()`, `group_by()`, and
`summarize()`.

``` r
weather %>% 
  filter(month == 1) %>% 
  group_by(station_id) %>% 
  summarize(mean_temp = mean(temp))
```

    ## # A tibble: 49 × 2
    ##    station_id   mean_temp
    ##    <chr>            <dbl>
    ##  1 ag4201801q3h   -27.6  
    ##  2 bal201801q3h   -17.2  
    ##  3 brp201801q3h    -4.23 
    ##  4 byd201801q3h   -15.5  
    ##  5 cbd201801q3h    -0.221
    ##  6 cha201801q3h    65.5  
    ##  7 d10201801q3h    16.5  
    ##  8 d47201801q3h   -13.4  
    ##  9 d85201801q3h   -22.3  
    ## 10 dc2201801q3h   -10.3  
    ## # … with 39 more rows

6.  Write code to determine which station had the coldest average
    temperature in January.

(hint: look up the `arrange()` function)

``` r
weather %>% 
  filter(month == 1) %>% 
  group_by(station_id) %>% 
  summarize(mean_temp = mean(temp)) %>% 
  arrange(mean_temp)
```

    ## # A tibble: 49 × 2
    ##    station_id   mean_temp
    ##    <chr>            <dbl>
    ##  1 ag4201801q3h    -27.6 
    ##  2 rls201801q3h    -26.1 
    ##  3 d85201801q3h    -22.3 
    ##  4 jas201801q3h    -18.0 
    ##  5 bal201801q3h    -17.2 
    ##  6 byd201801q3h    -15.5 
    ##  7 d47201801q3h    -13.4 
    ##  8 kth201801q3h    -10.8 
    ##  9 dc2201801q3h    -10.3 
    ## 10 sid201801q3h     -9.73
    ## # … with 39 more rows
